v 10.8375 12.6325 0
v 10.8375 12.1675 0
v 11.5625 12.6325 0
v 11.5625 12.1675 0
v 10.8375 17.5925 0
v 10.8375 17.1275 0
v 11.5625 17.5925 0
v 11.5625 17.1275 0
v 10.8375 22.5525 0
v 10.8375 22.0875 0
v 11.5625 22.5525 0
v 11.5625 22.0875 0
v 10.8375 2.7125 0
v 10.8375 2.2475 0
v 11.5625 2.7125 0
v 11.5625 2.2475 0
v 10.8375 27.5125 0
v 10.8375 27.0475 0
v 11.5625 27.5125 0
v 11.5625 27.0475 0
v 10.8375 32.4725 0
v 10.8375 32.0075 0
v 11.5625 32.4725 0
v 11.5625 32.0075 0
v 10.8375 37.4325 0
v 10.8375 36.9675 0
v 11.5625 37.4325 0
v 11.5625 36.9675 0
v 10.8375 42.3925 0
v 10.8375 41.9275 0
v 11.5625 42.3925 0
v 11.5625 41.9275 0
v 10.8375 47.3525 0
v 10.8375 46.8875 0
v 11.5625 47.3525 0
v 11.5625 46.8875 0
v 10.8375 7.6725 0
v 10.8375 7.2075 0
v 11.5625 7.6725 0
v 11.5625 7.2075 0
v 0.9175 12.6325 0
v 0.9175 12.1675 0
v 1.6425 12.6325 0
v 1.6425 12.1675 0
v 0.9175 17.5925 0
v 0.9175 17.1275 0
v 1.6425 17.5925 0
v 1.6425 17.1275 0
v 0.9175 22.5525 0
v 0.9175 22.0875 0
v 1.6425 22.5525 0
v 1.6425 22.0875 0
v 0.9175 2.7125 0
v 0.9175 2.2475 0
v 1.6425 2.7125 0
v 1.6425 2.2475 0
v 0.9175 27.5125 0
v 0.9175 27.0475 0
v 1.6425 27.5125 0
v 1.6425 27.0475 0
v 0.9175 32.4725 0
v 0.9175 32.0075 0
v 1.6425 32.4725 0
v 1.6425 32.0075 0
v 0.9175 37.4325 0
v 0.9175 36.9675 0
v 1.6425 37.4325 0
v 1.6425 36.9675 0
v 0.9175 42.3925 0
v 0.9175 41.9275 0
v 1.6425 42.3925 0
v 1.6425 41.9275 0
v 0.9175 47.3525 0
v 0.9175 46.8875 0
v 1.6425 47.3525 0
v 1.6425 46.8875 0
v 0.9175 7.6725 0
v 0.9175 7.2075 0
v 1.6425 7.6725 0
v 1.6425 7.2075 0
v 13.3175 12.6325 0
v 13.3175 12.1675 0
v 14.0425 12.6325 0
v 14.0425 12.1675 0
v 13.3175 17.5925 0
v 13.3175 17.1275 0
v 14.0425 17.5925 0
v 14.0425 17.1275 0
v 13.3175 22.5525 0
v 13.3175 22.0875 0
v 14.0425 22.5525 0
v 14.0425 22.0875 0
v 13.3175 2.7125 0
v 13.3175 2.2475 0
v 14.0425 2.7125 0
v 14.0425 2.2475 0
v 13.3175 27.5125 0
v 13.3175 27.0475 0
v 14.0425 27.5125 0
v 14.0425 27.0475 0
v 13.3175 32.4725 0
v 13.3175 32.0075 0
v 14.0425 32.4725 0
v 14.0425 32.0075 0
v 13.3175 37.4325 0
v 13.3175 36.9675 0
v 14.0425 37.4325 0
v 14.0425 36.9675 0
v 13.3175 42.3925 0
v 13.3175 41.9275 0
v 14.0425 42.3925 0
v 14.0425 41.9275 0
v 13.3175 47.3525 0
v 13.3175 46.8875 0
v 14.0425 47.3525 0
v 14.0425 46.8875 0
v 13.3175 7.6725 0
v 13.3175 7.2075 0
v 14.0425 7.6725 0
v 14.0425 7.2075 0
v 16.5225 12.6325 0
v 15.7975 12.1675 0
v 15.7975 12.6325 0
v 16.5225 12.1675 0
v 16.5225 17.5925 0
v 15.7975 17.1275 0
v 15.7975 17.5925 0
v 16.5225 17.1275 0
v 16.5225 22.5525 0
v 15.7975 22.0875 0
v 15.7975 22.5525 0
v 16.5225 22.0875 0
v 16.5225 2.7125 0
v 15.7975 2.2475 0
v 15.7975 2.7125 0
v 16.5225 2.2475 0
v 16.5225 27.5125 0
v 15.7975 27.0475 0
v 15.7975 27.5125 0
v 16.5225 27.0475 0
v 16.5225 32.4725 0
v 15.7975 32.0075 0
v 15.7975 32.4725 0
v 16.5225 32.0075 0
v 16.5225 37.4325 0
v 15.7975 36.9675 0
v 15.7975 37.4325 0
v 16.5225 36.9675 0
v 16.5225 42.3925 0
v 15.7975 41.9275 0
v 15.7975 42.3925 0
v 16.5225 41.9275 0
v 16.5225 47.3525 0
v 15.7975 46.8875 0
v 15.7975 47.3525 0
v 16.5225 46.8875 0
v 16.5225 7.6725 0
v 15.7975 7.2075 0
v 15.7975 7.6725 0
v 16.5225 7.2075 0
v 18.2775 12.6325 0
v 18.2775 12.1675 0
v 19.0025 12.6325 0
v 19.0025 12.1675 0
v 18.2775 17.5925 0
v 18.2775 17.1275 0
v 19.0025 17.5925 0
v 19.0025 17.1275 0
v 18.2775 22.5525 0
v 18.2775 22.0875 0
v 19.0025 22.5525 0
v 19.0025 22.0875 0
v 18.2775 2.7125 0
v 18.2775 2.2475 0
v 19.0025 2.7125 0
v 19.0025 2.2475 0
v 18.2775 27.5125 0
v 18.2775 27.0475 0
v 19.0025 27.5125 0
v 19.0025 27.0475 0
v 18.2775 32.4725 0
v 18.2775 32.0075 0
v 19.0025 32.4725 0
v 19.0025 32.0075 0
v 18.2775 37.4325 0
v 18.2775 36.9675 0
v 19.0025 37.4325 0
v 19.0025 36.9675 0
v 18.2775 42.3925 0
v 18.2775 41.9275 0
v 19.0025 42.3925 0
v 19.0025 41.9275 0
v 18.2775 47.3525 0
v 18.2775 46.8875 0
v 19.0025 47.3525 0
v 19.0025 46.8875 0
v 18.2775 7.6725 0
v 18.2775 7.2075 0
v 19.0025 7.6725 0
v 19.0025 7.2075 0
v 20.7575 12.6325 0
v 20.7575 12.1675 0
v 21.4825 12.6325 0
v 21.4825 12.1675 0
v 20.7575 17.5925 0
v 20.7575 17.1275 0
v 21.4825 17.5925 0
v 21.4825 17.1275 0
v 20.7575 22.5525 0
v 20.7575 22.0875 0
v 21.4825 22.5525 0
v 21.4825 22.0875 0
v 20.7575 2.7125 0
v 20.7575 2.2475 0
v 21.4825 2.7125 0
v 21.4825 2.2475 0
v 20.7575 27.5125 0
v 20.7575 27.0475 0
v 21.4825 27.5125 0
v 21.4825 27.0475 0
v 20.7575 32.4725 0
v 20.7575 32.0075 0
v 21.4825 32.4725 0
v 21.4825 32.0075 0
v 20.7575 37.4325 0
v 20.7575 36.9675 0
v 21.4825 37.4325 0
v 21.4825 36.9675 0
v 20.7575 42.3925 0
v 20.7575 41.9275 0
v 21.4825 42.3925 0
v 21.4825 41.9275 0
v 20.7575 47.3525 0
v 20.7575 46.8875 0
v 21.4825 47.3525 0
v 21.4825 46.8875 0
v 20.7575 7.6725 0
v 20.7575 7.2075 0
v 21.4825 7.6725 0
v 21.4825 7.2075 0
v 23.2375 12.6325 0
v 23.2375 12.1675 0
v 23.9625 12.6325 0
v 23.9625 12.1675 0
v 23.2375 17.5925 0
v 23.2375 17.1275 0
v 23.9625 17.5925 0
v 23.9625 17.1275 0
v 23.2375 22.5525 0
v 23.2375 22.0875 0
v 23.9625 22.5525 0
v 23.9625 22.0875 0
v 23.2375 2.7125 0
v 23.2375 2.2475 0
v 23.9625 2.7125 0
v 23.9625 2.2475 0
v 23.2375 27.5125 0
v 23.2375 27.0475 0
v 23.9625 27.5125 0
v 23.9625 27.0475 0
v 23.2375 32.4725 0
v 23.2375 32.0075 0
v 23.9625 32.4725 0
v 23.9625 32.0075 0
v 23.2375 37.4325 0
v 23.2375 36.9675 0
v 23.9625 37.4325 0
v 23.9625 36.9675 0
v 23.2375 42.3925 0
v 23.2375 41.9275 0
v 23.9625 42.3925 0
v 23.9625 41.9275 0
v 23.2375 47.3525 0
v 23.2375 46.8875 0
v 23.9625 47.3525 0
v 23.9625 46.8875 0
v 23.2375 7.6725 0
v 23.2375 7.2075 0
v 23.9625 7.6725 0
v 23.9625 7.2075 0
v 25.7175 12.6325 0
v 25.7175 12.1675 0
v 26.4425 12.6325 0
v 26.4425 12.1675 0
v 25.7175 17.5925 0
v 25.7175 17.1275 0
v 26.4425 17.5925 0
v 26.4425 17.1275 0
v 25.7175 22.5525 0
v 25.7175 22.0875 0
v 26.4425 22.5525 0
v 26.4425 22.0875 0
v 25.7175 2.7125 0
v 25.7175 2.2475 0
v 26.4425 2.7125 0
v 26.4425 2.2475 0
v 25.7175 27.5125 0
v 25.7175 27.0475 0
v 26.4425 27.5125 0
v 26.4425 27.0475 0
v 25.7175 32.4725 0
v 25.7175 32.0075 0
v 26.4425 32.4725 0
v 26.4425 32.0075 0
v 25.7175 37.4325 0
v 25.7175 36.9675 0
v 26.4425 37.4325 0
v 26.4425 36.9675 0
v 25.7175 42.3925 0
v 25.7175 41.9275 0
v 26.4425 42.3925 0
v 26.4425 41.9275 0
v 25.7175 47.3525 0
v 25.7175 46.8875 0
v 26.4425 47.3525 0
v 26.4425 46.8875 0
v 25.7175 7.6725 0
v 25.7175 7.2075 0
v 26.4425 7.6725 0
v 26.4425 7.2075 0
v 28.1975 12.6325 0
v 28.1975 12.1675 0
v 28.9225 12.6325 0
v 28.9225 12.1675 0
v 28.1975 17.5925 0
v 28.1975 17.1275 0
v 28.9225 17.5925 0
v 28.9225 17.1275 0
v 28.1975 22.5525 0
v 28.1975 22.0875 0
v 28.9225 22.5525 0
v 28.9225 22.0875 0
v 28.1975 2.7125 0
v 28.1975 2.2475 0
v 28.9225 2.7125 0
v 28.9225 2.2475 0
v 28.1975 27.5125 0
v 28.1975 27.0475 0
v 28.9225 27.5125 0
v 28.9225 27.0475 0
v 28.1975 32.4725 0
v 28.1975 32.0075 0
v 28.9225 32.4725 0
v 28.9225 32.0075 0
v 28.1975 37.4325 0
v 28.1975 36.9675 0
v 28.9225 37.4325 0
v 28.9225 36.9675 0
v 28.1975 42.3925 0
v 28.1975 41.9275 0
v 28.9225 42.3925 0
v 28.9225 41.9275 0
v 28.1975 47.3525 0
v 28.1975 46.8875 0
v 28.9225 47.3525 0
v 28.9225 46.8875 0
v 28.1975 7.6725 0
v 28.1975 7.2075 0
v 28.9225 7.6725 0
v 28.9225 7.2075 0
v 30.6775 12.6325 0
v 30.6775 12.1675 0
v 31.4025 12.6325 0
v 31.4025 12.1675 0
v 30.6775 17.5925 0
v 30.6775 17.1275 0
v 31.4025 17.5925 0
v 31.4025 17.1275 0
v 30.6775 22.5525 0
v 30.6775 22.0875 0
v 31.4025 22.5525 0
v 31.4025 22.0875 0
v 30.6775 2.7125 0
v 30.6775 2.2475 0
v 31.4025 2.7125 0
v 31.4025 2.2475 0
v 30.6775 27.5125 0
v 30.6775 27.0475 0
v 31.4025 27.5125 0
v 31.4025 27.0475 0
v 30.6775 32.4725 0
v 30.6775 32.0075 0
v 31.4025 32.4725 0
v 31.4025 32.0075 0
v 30.6775 37.4325 0
v 30.6775 36.9675 0
v 31.4025 37.4325 0
v 31.4025 36.9675 0
v 30.6775 42.3925 0
v 30.6775 41.9275 0
v 31.4025 42.3925 0
v 31.4025 41.9275 0
v 30.6775 47.3525 0
v 30.6775 46.8875 0
v 31.4025 47.3525 0
v 31.4025 46.8875 0
v 30.6775 7.6725 0
v 30.6775 7.2075 0
v 31.4025 7.6725 0
v 31.4025 7.2075 0
v 33.1575 12.6325 0
v 33.1575 12.1675 0
v 33.8825 12.6325 0
v 33.8825 12.1675 0
v 33.1575 17.5925 0
v 33.1575 17.1275 0
v 33.8825 17.5925 0
v 33.8825 17.1275 0
v 33.1575 22.5525 0
v 33.1575 22.0875 0
v 33.8825 22.5525 0
v 33.8825 22.0875 0
v 33.1575 2.7125 0
v 33.1575 2.2475 0
v 33.8825 2.7125 0
v 33.8825 2.2475 0
v 33.1575 27.5125 0
v 33.1575 27.0475 0
v 33.8825 27.5125 0
v 33.8825 27.0475 0
v 33.1575 32.4725 0
v 33.1575 32.0075 0
v 33.8825 32.4725 0
v 33.8825 32.0075 0
v 33.1575 37.4325 0
v 33.1575 36.9675 0
v 33.8825 37.4325 0
v 33.8825 36.9675 0
v 33.1575 42.3925 0
v 33.1575 41.9275 0
v 33.8825 42.3925 0
v 33.8825 41.9275 0
v 33.1575 47.3525 0
v 33.1575 46.8875 0
v 33.8825 47.3525 0
v 33.8825 46.8875 0
v 33.1575 7.6725 0
v 33.1575 7.2075 0
v 33.8825 7.6725 0
v 33.8825 7.2075 0
v 35.6375 12.6325 0
v 35.6375 12.1675 0
v 36.3625 12.6325 0
v 36.3625 12.1675 0
v 35.6375 17.5925 0
v 35.6375 17.1275 0
v 36.3625 17.5925 0
v 36.3625 17.1275 0
v 35.6375 22.5525 0
v 35.6375 22.0875 0
v 36.3625 22.5525 0
v 36.3625 22.0875 0
v 35.6375 2.7125 0
v 35.6375 2.2475 0
v 36.3625 2.7125 0
v 36.3625 2.2475 0
v 35.6375 27.5125 0
v 35.6375 27.0475 0
v 36.3625 27.5125 0
v 36.3625 27.0475 0
v 35.6375 32.4725 0
v 35.6375 32.0075 0
v 36.3625 32.4725 0
v 36.3625 32.0075 0
v 35.6375 37.4325 0
v 35.6375 36.9675 0
v 36.3625 37.4325 0
v 36.3625 36.9675 0
v 35.6375 42.3925 0
v 35.6375 41.9275 0
v 36.3625 42.3925 0
v 36.3625 41.9275 0
v 35.6375 47.3525 0
v 35.6375 46.8875 0
v 36.3625 47.3525 0
v 36.3625 46.8875 0
v 35.6375 7.6725 0
v 35.6375 7.2075 0
v 36.3625 7.6725 0
v 36.3625 7.2075 0
v 3.3975 12.6325 0
v 3.3975 12.1675 0
v 4.1225 12.6325 0
v 4.1225 12.1675 0
v 3.3975 17.5925 0
v 3.3975 17.1275 0
v 4.1225 17.5925 0
v 4.1225 17.1275 0
v 3.3975 22.5525 0
v 3.3975 22.0875 0
v 4.1225 22.5525 0
v 4.1225 22.0875 0
v 3.3975 2.7125 0
v 3.3975 2.2475 0
v 4.1225 2.7125 0
v 4.1225 2.2475 0
v 3.3975 27.5125 0
v 3.3975 27.0475 0
v 4.1225 27.5125 0
v 4.1225 27.0475 0
v 3.3975 32.4725 0
v 3.3975 32.0075 0
v 4.1225 32.4725 0
v 4.1225 32.0075 0
v 3.3975 37.4325 0
v 3.3975 36.9675 0
v 4.1225 37.4325 0
v 4.1225 36.9675 0
v 3.3975 42.3925 0
v 3.3975 41.9275 0
v 4.1225 42.3925 0
v 4.1225 41.9275 0
v 3.3975 47.3525 0
v 3.3975 46.8875 0
v 4.1225 47.3525 0
v 4.1225 46.8875 0
v 3.3975 7.6725 0
v 3.3975 7.2075 0
v 4.1225 7.6725 0
v 4.1225 7.2075 0
v 38.1175 12.6325 0
v 38.1175 12.1675 0
v 38.8425 12.6325 0
v 38.8425 12.1675 0
v 38.1175 17.5925 0
v 38.1175 17.1275 0
v 38.8425 17.5925 0
v 38.8425 17.1275 0
v 38.1175 22.5525 0
v 38.1175 22.0875 0
v 38.8425 22.5525 0
v 38.8425 22.0875 0
v 38.1175 2.7125 0
v 38.1175 2.2475 0
v 38.8425 2.7125 0
v 38.8425 2.2475 0
v 38.1175 27.5125 0
v 38.1175 27.0475 0
v 38.8425 27.5125 0
v 38.8425 27.0475 0
v 38.1175 32.4725 0
v 38.1175 32.0075 0
v 38.8425 32.4725 0
v 38.8425 32.0075 0
v 38.1175 37.4325 0
v 38.1175 36.9675 0
v 38.8425 37.4325 0
v 38.8425 36.9675 0
v 38.1175 42.3925 0
v 38.1175 41.9275 0
v 38.8425 42.3925 0
v 38.8425 41.9275 0
v 38.1175 47.3525 0
v 38.1175 46.8875 0
v 38.8425 47.3525 0
v 38.8425 46.8875 0
v 38.1175 7.6725 0
v 38.1175 7.2075 0
v 38.8425 7.6725 0
v 38.8425 7.2075 0
v 40.5975 12.6325 0
v 40.5975 12.1675 0
v 41.3225 12.6325 0
v 41.3225 12.1675 0
v 40.5975 17.5925 0
v 40.5975 17.1275 0
v 41.3225 17.5925 0
v 41.3225 17.1275 0
v 40.5975 22.5525 0
v 40.5975 22.0875 0
v 41.3225 22.5525 0
v 41.3225 22.0875 0
v 40.5975 2.7125 0
v 40.5975 2.2475 0
v 41.3225 2.7125 0
v 41.3225 2.2475 0
v 40.5975 27.5125 0
v 40.5975 27.0475 0
v 41.3225 27.5125 0
v 41.3225 27.0475 0
v 40.5975 32.4725 0
v 40.5975 32.0075 0
v 41.3225 32.4725 0
v 41.3225 32.0075 0
v 40.5975 37.4325 0
v 40.5975 36.9675 0
v 41.3225 37.4325 0
v 41.3225 36.9675 0
v 40.5975 42.3925 0
v 40.5975 41.9275 0
v 41.3225 42.3925 0
v 41.3225 41.9275 0
v 40.5975 47.3525 0
v 40.5975 46.8875 0
v 41.3225 47.3525 0
v 41.3225 46.8875 0
v 40.5975 7.6725 0
v 40.5975 7.2075 0
v 41.3225 7.6725 0
v 41.3225 7.2075 0
v 43.0775 12.6325 0
v 43.0775 12.1675 0
v 43.8025 12.6325 0
v 43.8025 12.1675 0
v 43.0775 17.5925 0
v 43.0775 17.1275 0
v 43.8025 17.5925 0
v 43.8025 17.1275 0
v 43.0775 22.5525 0
v 43.0775 22.0875 0
v 43.8025 22.5525 0
v 43.8025 22.0875 0
v 43.0775 2.7125 0
v 43.0775 2.2475 0
v 43.8025 2.7125 0
v 43.8025 2.2475 0
v 43.0775 27.5125 0
v 43.0775 27.0475 0
v 43.8025 27.5125 0
v 43.8025 27.0475 0
v 43.0775 32.4725 0
v 43.0775 32.0075 0
v 43.8025 32.4725 0
v 43.8025 32.0075 0
v 43.0775 37.4325 0
v 43.0775 36.9675 0
v 43.8025 37.4325 0
v 43.8025 36.9675 0
v 43.0775 42.3925 0
v 43.0775 41.9275 0
v 43.8025 42.3925 0
v 43.8025 41.9275 0
v 43.0775 47.3525 0
v 43.0775 46.8875 0
v 43.8025 47.3525 0
v 43.8025 46.8875 0
v 43.0775 7.6725 0
v 43.0775 7.2075 0
v 43.8025 7.6725 0
v 43.8025 7.2075 0
v 45.5575 12.6325 0
v 45.5575 12.1675 0
v 46.2825 12.6325 0
v 46.2825 12.1675 0
v 45.5575 17.5925 0
v 45.5575 17.1275 0
v 46.2825 17.5925 0
v 46.2825 17.1275 0
v 45.5575 22.5525 0
v 45.5575 22.0875 0
v 46.2825 22.5525 0
v 46.2825 22.0875 0
v 45.5575 2.7125 0
v 45.5575 2.2475 0
v 46.2825 2.7125 0
v 46.2825 2.2475 0
v 45.5575 27.5125 0
v 45.5575 27.0475 0
v 46.2825 27.5125 0
v 46.2825 27.0475 0
v 45.5575 32.4725 0
v 45.5575 32.0075 0
v 46.2825 32.4725 0
v 46.2825 32.0075 0
v 45.5575 37.4325 0
v 45.5575 36.9675 0
v 46.2825 37.4325 0
v 46.2825 36.9675 0
v 45.5575 42.3925 0
v 45.5575 41.9275 0
v 46.2825 42.3925 0
v 46.2825 41.9275 0
v 45.5575 47.3525 0
v 45.5575 46.8875 0
v 46.2825 47.3525 0
v 46.2825 46.8875 0
v 45.5575 7.6725 0
v 45.5575 7.2075 0
v 46.2825 7.6725 0
v 46.2825 7.2075 0
v 48.0375 12.6325 0
v 48.0375 12.1675 0
v 48.7625 12.6325 0
v 48.7625 12.1675 0
v 48.0375 17.5925 0
v 48.0375 17.1275 0
v 48.7625 17.5925 0
v 48.7625 17.1275 0
v 48.0375 22.5525 0
v 48.0375 22.0875 0
v 48.7625 22.5525 0
v 48.7625 22.0875 0
v 48.0375 2.7125 0
v 48.0375 2.2475 0
v 48.7625 2.7125 0
v 48.7625 2.2475 0
v 48.0375 27.5125 0
v 48.0375 27.0475 0
v 48.7625 27.5125 0
v 48.7625 27.0475 0
v 48.0375 32.4725 0
v 48.0375 32.0075 0
v 48.7625 32.4725 0
v 48.7625 32.0075 0
v 48.0375 37.4325 0
v 48.0375 36.9675 0
v 48.7625 37.4325 0
v 48.7625 36.9675 0
v 48.0375 42.3925 0
v 48.0375 41.9275 0
v 48.7625 42.3925 0
v 48.7625 41.9275 0
v 48.0375 47.3525 0
v 48.0375 46.8875 0
v 48.7625 47.3525 0
v 48.7625 46.8875 0
v 48.0375 7.6725 0
v 48.0375 7.2075 0
v 48.7625 7.6725 0
v 48.7625 7.2075 0
v 5.8775 12.6325 0
v 5.8775 12.1675 0
v 6.6025 12.6325 0
v 6.6025 12.1675 0
v 5.8775 17.5925 0
v 5.8775 17.1275 0
v 6.6025 17.5925 0
v 6.6025 17.1275 0
v 5.8775 22.5525 0
v 5.8775 22.0875 0
v 6.6025 22.5525 0
v 6.6025 22.0875 0
v 5.8775 2.7125 0
v 5.8775 2.2475 0
v 6.6025 2.7125 0
v 6.6025 2.2475 0
v 5.8775 27.5125 0
v 5.8775 27.0475 0
v 6.6025 27.5125 0
v 6.6025 27.0475 0
v 5.8775 32.4725 0
v 5.8775 32.0075 0
v 6.6025 32.4725 0
v 6.6025 32.0075 0
v 5.8775 37.4325 0
v 5.8775 36.9675 0
v 6.6025 37.4325 0
v 6.6025 36.9675 0
v 5.8775 42.3925 0
v 5.8775 41.9275 0
v 6.6025 42.3925 0
v 6.6025 41.9275 0
v 5.8775 47.3525 0
v 5.8775 46.8875 0
v 6.6025 47.3525 0
v 6.6025 46.8875 0
v 5.8775 7.6725 0
v 5.8775 7.2075 0
v 6.6025 7.6725 0
v 6.6025 7.2075 0
v 8.3575 12.6325 0
v 8.3575 12.1675 0
v 9.0825 12.6325 0
v 9.0825 12.1675 0
v 8.3575 17.5925 0
v 8.3575 17.1275 0
v 9.0825 17.5925 0
v 9.0825 17.1275 0
v 8.3575 22.5525 0
v 8.3575 22.0875 0
v 9.0825 22.5525 0
v 9.0825 22.0875 0
v 8.3575 2.7125 0
v 8.3575 2.2475 0
v 9.0825 2.7125 0
v 9.0825 2.2475 0
v 8.3575 27.5125 0
v 8.3575 27.0475 0
v 9.0825 27.5125 0
v 9.0825 27.0475 0
v 8.3575 32.4725 0
v 8.3575 32.0075 0
v 9.0825 32.4725 0
v 9.0825 32.0075 0
v 8.3575 37.4325 0
v 8.3575 36.9675 0
v 9.0825 37.4325 0
v 9.0825 36.9675 0
v 8.3575 42.3925 0
v 8.3575 41.9275 0
v 9.0825 42.3925 0
v 9.0825 41.9275 0
v 8.3575 47.3525 0
v 8.3575 46.8875 0
v 9.0825 47.3525 0
v 9.0825 46.8875 0
v 8.3575 7.6725 0
v 8.3575 7.2075 0
v 9.0825 7.6725 0
v 9.0825 7.2075 0
v -0.3625 0.2325 0
v -0.3625 -0.2325 0
v 0.3625 0.2325 0
v 0.3625 -0.2325 0
v -0.3625 15.1125 0
v -0.3625 14.6475 0
v 0.3625 15.1125 0
v 0.3625 14.6475 0
v -0.3625 20.0725 0
v -0.3625 19.6075 0
v 0.3625 20.0725 0
v 0.3625 19.6075 0
v -0.3625 25.0325 0
v -0.3625 24.5675 0
v 0.3625 25.0325 0
v 0.3625 24.5675 0
v -0.3625 29.9925 0
v -0.3625 29.5275 0
v 0.3625 29.9925 0
v 0.3625 29.5275 0
v -0.3625 34.9525 0
v -0.3625 34.4875 0
v 0.3625 34.9525 0
v 0.3625 34.4875 0
v -0.3625 39.9125 0
v -0.3625 39.4475 0
v 0.3625 39.9125 0
v 0.3625 39.4475 0
v -0.3625 44.8725 0
v -0.3625 44.4075 0
v 0.3625 44.8725 0
v 0.3625 44.4075 0
v -0.3625 5.1925 0
v -0.3625 4.7275 0
v 0.3625 5.1925 0
v 0.3625 4.7275 0
v -0.3625 49.8325 0
v -0.3625 49.3675 0
v 0.3625 49.8325 0
v 0.3625 49.3675 0
v -0.3625 10.1525 0
v -0.3625 9.6875 0
v 0.3625 10.1525 0
v 0.3625 9.6875 0
v 12.0375 0.2325 0
v 12.0375 -0.2325 0
v 12.7625 0.2325 0
v 12.7625 -0.2325 0
v 12.0375 15.1125 0
v 12.0375 14.6475 0
v 12.7625 15.1125 0
v 12.7625 14.6475 0
v 12.0375 20.0725 0
v 12.0375 19.6075 0
v 12.7625 20.0725 0
v 12.7625 19.6075 0
v 12.0375 25.0325 0
v 12.0375 24.5675 0
v 12.7625 25.0325 0
v 12.7625 24.5675 0
v 12.0375 29.9925 0
v 12.0375 29.5275 0
v 12.7625 29.9925 0
v 12.7625 29.5275 0
v 12.0375 34.9525 0
v 12.0375 34.4875 0
v 12.7625 34.9525 0
v 12.7625 34.4875 0
v 12.0375 39.9125 0
v 12.0375 39.4475 0
v 12.7625 39.9125 0
v 12.7625 39.4475 0
v 12.0375 44.8725 0
v 12.0375 44.4075 0
v 12.7625 44.8725 0
v 12.7625 44.4075 0
v 12.0375 5.1925 0
v 12.0375 4.7275 0
v 12.7625 5.1925 0
v 12.7625 4.7275 0
v 12.0375 49.8325 0
v 12.0375 49.3675 0
v 12.7625 49.8325 0
v 12.7625 49.3675 0
v 12.0375 10.1525 0
v 12.0375 9.6875 0
v 12.7625 10.1525 0
v 12.7625 9.6875 0
v 14.5175 0.2325 0
v 14.5175 -0.2325 0
v 15.2425 0.2325 0
v 15.2425 -0.2325 0
v 14.5175 15.1125 0
v 14.5175 14.6475 0
v 15.2425 15.1125 0
v 15.2425 14.6475 0
v 14.5175 20.0725 0
v 14.5175 19.6075 0
v 15.2425 20.0725 0
v 15.2425 19.6075 0
v 14.5175 25.0325 0
v 14.5175 24.5675 0
v 15.2425 25.0325 0
v 15.2425 24.5675 0
v 14.5175 29.9925 0
v 14.5175 29.5275 0
v 15.2425 29.9925 0
v 15.2425 29.5275 0
v 14.5175 34.9525 0
v 14.5175 34.4875 0
v 15.2425 34.9525 0
v 15.2425 34.4875 0
v 14.5175 39.9125 0
v 14.5175 39.4475 0
v 15.2425 39.9125 0
v 15.2425 39.4475 0
v 14.5175 44.8725 0
v 14.5175 44.4075 0
v 15.2425 44.8725 0
v 15.2425 44.4075 0
v 14.5175 5.1925 0
v 14.5175 4.7275 0
v 15.2425 5.1925 0
v 15.2425 4.7275 0
v 14.5175 49.8325 0
v 14.5175 49.3675 0
v 15.2425 49.8325 0
v 15.2425 49.3675 0
v 14.5175 10.1525 0
v 14.5175 9.6875 0
v 15.2425 10.1525 0
v 15.2425 9.6875 0
v 16.9975 0.2325 0
v 16.9975 -0.2325 0
v 17.7225 0.2325 0
v 17.7225 -0.2325 0
v 16.9975 15.1125 0
v 16.9975 14.6475 0
v 17.7225 15.1125 0
v 17.7225 14.6475 0
v 16.9975 20.0725 0
v 16.9975 19.6075 0
v 17.7225 20.0725 0
v 17.7225 19.6075 0
v 16.9975 25.0325 0
v 16.9975 24.5675 0
v 17.7225 25.0325 0
v 17.7225 24.5675 0
v 16.9975 29.9925 0
v 16.9975 29.5275 0
v 17.7225 29.9925 0
v 17.7225 29.5275 0
v 16.9975 34.9525 0
v 16.9975 34.4875 0
v 17.7225 34.9525 0
v 17.7225 34.4875 0
v 16.9975 39.9125 0
v 16.9975 39.4475 0
v 17.7225 39.9125 0
v 17.7225 39.4475 0
v 16.9975 44.8725 0
v 16.9975 44.4075 0
v 17.7225 44.8725 0
v 17.7225 44.4075 0
v 16.9975 5.1925 0
v 16.9975 4.7275 0
v 17.7225 5.1925 0
v 17.7225 4.7275 0
v 16.9975 49.8325 0
v 16.9975 49.3675 0
v 17.7225 49.8325 0
v 17.7225 49.3675 0
v 16.9975 10.1525 0
v 16.9975 9.6875 0
v 17.7225 10.1525 0
v 17.7225 9.6875 0
v 19.4775 0.2325 0
v 19.4775 -0.2325 0
v 20.2025 0.2325 0
v 20.2025 -0.2325 0
v 19.4775 15.1125 0
v 19.4775 14.6475 0
v 20.2025 15.1125 0
v 20.2025 14.6475 0
v 19.4775 20.0725 0
v 19.4775 19.6075 0
v 20.2025 20.0725 0
v 20.2025 19.6075 0
v 19.4775 25.0325 0
v 19.4775 24.5675 0
v 20.2025 25.0325 0
v 20.2025 24.5675 0
v 19.4775 29.9925 0
v 19.4775 29.5275 0
v 20.2025 29.9925 0
v 20.2025 29.5275 0
v 19.4775 34.9525 0
v 19.4775 34.4875 0
v 20.2025 34.9525 0
v 20.2025 34.4875 0
v 19.4775 39.9125 0
v 19.4775 39.4475 0
v 20.2025 39.9125 0
v 20.2025 39.4475 0
v 19.4775 44.8725 0
v 19.4775 44.4075 0
v 20.2025 44.8725 0
v 20.2025 44.4075 0
v 19.4775 5.1925 0
v 19.4775 4.7275 0
v 20.2025 5.1925 0
v 20.2025 4.7275 0
v 19.4775 49.8325 0
v 19.4775 49.3675 0
v 20.2025 49.8325 0
v 20.2025 49.3675 0
v 19.4775 10.1525 0
v 19.4775 9.6875 0
v 20.2025 10.1525 0
v 20.2025 9.6875 0
v 21.9575 0.2325 0
v 21.9575 -0.2325 0
v 22.6825 0.2325 0
v 22.6825 -0.2325 0
v 21.9575 15.1125 0
v 21.9575 14.6475 0
v 22.6825 15.1125 0
v 22.6825 14.6475 0
v 21.9575 20.0725 0
v 21.9575 19.6075 0
v 22.6825 20.0725 0
v 22.6825 19.6075 0
v 21.9575 25.0325 0
v 21.9575 24.5675 0
v 22.6825 25.0325 0
v 22.6825 24.5675 0
v 21.9575 29.9925 0
v 21.9575 29.5275 0
v 22.6825 29.9925 0
v 22.6825 29.5275 0
v 21.9575 34.9525 0
v 21.9575 34.4875 0
v 22.6825 34.9525 0
v 22.6825 34.4875 0
v 21.9575 39.9125 0
v 21.9575 39.4475 0
v 22.6825 39.9125 0
v 22.6825 39.4475 0
v 21.9575 44.8725 0
v 21.9575 44.4075 0
v 22.6825 44.8725 0
v 22.6825 44.4075 0
v 21.9575 5.1925 0
v 21.9575 4.7275 0
v 22.6825 5.1925 0
v 22.6825 4.7275 0
v 21.9575 49.8325 0
v 21.9575 49.3675 0
v 22.6825 49.8325 0
v 22.6825 49.3675 0
v 21.9575 10.1525 0
v 21.9575 9.6875 0
v 22.6825 10.1525 0
v 22.6825 9.6875 0
v 2.1175 0.2325 0
v 2.1175 -0.2325 0
v 2.8425 0.2325 0
v 2.8425 -0.2325 0
v 24.4375 0.2325 0
v 24.4375 -0.2325 0
v 25.1625 0.2325 0
v 25.1625 -0.2325 0
v 2.1175 15.1125 0
v 2.1175 14.6475 0
v 2.8425 15.1125 0
v 2.8425 14.6475 0
v 24.4375 15.1125 0
v 24.4375 14.6475 0
v 25.1625 15.1125 0
v 25.1625 14.6475 0
v 2.1175 20.0725 0
v 2.1175 19.6075 0
v 2.8425 20.0725 0
v 2.8425 19.6075 0
v 24.4375 20.0725 0
v 24.4375 19.6075 0
v 25.1625 20.0725 0
v 25.1625 19.6075 0
v 2.1175 25.0325 0
v 2.1175 24.5675 0
v 2.8425 25.0325 0
v 2.8425 24.5675 0
v 24.4375 25.0325 0
v 24.4375 24.5675 0
v 25.1625 25.0325 0
v 25.1625 24.5675 0
v 2.1175 29.9925 0
v 2.1175 29.5275 0
v 2.8425 29.9925 0
v 2.8425 29.5275 0
v 24.4375 29.9925 0
v 24.4375 29.5275 0
v 25.1625 29.9925 0
v 25.1625 29.5275 0
v 2.1175 34.9525 0
v 2.1175 34.4875 0
v 2.8425 34.9525 0
v 2.8425 34.4875 0
v 24.4375 34.9525 0
v 24.4375 34.4875 0
v 25.1625 34.9525 0
v 25.1625 34.4875 0
v 2.1175 39.9125 0
v 2.1175 39.4475 0
v 2.8425 39.9125 0
v 2.8425 39.4475 0
v 24.4375 39.9125 0
v 24.4375 39.4475 0
v 25.1625 39.9125 0
v 25.1625 39.4475 0
v 2.1175 44.8725 0
v 2.1175 44.4075 0
v 2.8425 44.8725 0
v 2.8425 44.4075 0
v 24.4375 44.8725 0
v 24.4375 44.4075 0
v 25.1625 44.8725 0
v 25.1625 44.4075 0
v 2.1175 5.1925 0
v 2.1175 4.7275 0
v 2.8425 5.1925 0
v 2.8425 4.7275 0
v 2.1175 49.8325 0
v 2.1175 49.3675 0
v 2.8425 49.8325 0
v 2.8425 49.3675 0
v 24.4375 5.1925 0
v 24.4375 4.7275 0
v 25.1625 5.1925 0
v 25.1625 4.7275 0
v 24.4375 49.8325 0
v 24.4375 49.3675 0
v 25.1625 49.8325 0
v 25.1625 49.3675 0
v 2.1175 10.1525 0
v 2.1175 9.6875 0
v 2.8425 10.1525 0
v 2.8425 9.6875 0
v 24.4375 10.1525 0
v 24.4375 9.6875 0
v 25.1625 10.1525 0
v 25.1625 9.6875 0
v 26.9175 0.2325 0
v 26.9175 -0.2325 0
v 27.6425 0.2325 0
v 27.6425 -0.2325 0
v 26.9175 15.1125 0
v 26.9175 14.6475 0
v 27.6425 15.1125 0
v 27.6425 14.6475 0
v 26.9175 20.0725 0
v 26.9175 19.6075 0
v 27.6425 20.0725 0
v 27.6425 19.6075 0
v 26.9175 25.0325 0
v 26.9175 24.5675 0
v 27.6425 25.0325 0
v 27.6425 24.5675 0
v 26.9175 29.9925 0
v 26.9175 29.5275 0
v 27.6425 29.9925 0
v 27.6425 29.5275 0
v 26.9175 34.9525 0
v 26.9175 34.4875 0
v 27.6425 34.9525 0
v 27.6425 34.4875 0
v 26.9175 39.9125 0
v 26.9175 39.4475 0
v 27.6425 39.9125 0
v 27.6425 39.4475 0
v 26.9175 44.8725 0
v 26.9175 44.4075 0
v 27.6425 44.8725 0
v 27.6425 44.4075 0
v 26.9175 5.1925 0
v 26.9175 4.7275 0
v 27.6425 5.1925 0
v 27.6425 4.7275 0
v 26.9175 49.8325 0
v 26.9175 49.3675 0
v 27.6425 49.8325 0
v 27.6425 49.3675 0
v 26.9175 10.1525 0
v 26.9175 9.6875 0
v 27.6425 10.1525 0
v 27.6425 9.6875 0
v 29.3975 0.2325 0
v 29.3975 -0.2325 0
v 30.1225 0.2325 0
v 30.1225 -0.2325 0
v 29.3975 15.1125 0
v 29.3975 14.6475 0
v 30.1225 15.1125 0
v 30.1225 14.6475 0
v 29.3975 20.0725 0
v 29.3975 19.6075 0
v 30.1225 20.0725 0
v 30.1225 19.6075 0
v 29.3975 25.0325 0
v 29.3975 24.5675 0
v 30.1225 25.0325 0
v 30.1225 24.5675 0
v 29.3975 29.9925 0
v 29.3975 29.5275 0
v 30.1225 29.9925 0
v 30.1225 29.5275 0
v 29.3975 34.9525 0
v 29.3975 34.4875 0
v 30.1225 34.9525 0
v 30.1225 34.4875 0
v 29.3975 39.9125 0
v 29.3975 39.4475 0
v 30.1225 39.9125 0
v 30.1225 39.4475 0
v 29.3975 44.8725 0
v 29.3975 44.4075 0
v 30.1225 44.8725 0
v 30.1225 44.4075 0
v 29.3975 5.1925 0
v 29.3975 4.7275 0
v 30.1225 5.1925 0
v 30.1225 4.7275 0
v 29.3975 49.8325 0
v 29.3975 49.3675 0
v 30.1225 49.8325 0
v 30.1225 49.3675 0
v 29.3975 10.1525 0
v 29.3975 9.6875 0
v 30.1225 10.1525 0
v 30.1225 9.6875 0
v 32.6025 0.2325 0
v 31.8775 -0.2325 0
v 31.8775 0.2325 0
v 32.6025 -0.2325 0
v 32.6025 15.1125 0
v 31.8775 14.6475 0
v 31.8775 15.1125 0
v 32.6025 14.6475 0
v 32.6025 20.0725 0
v 31.8775 19.6075 0
v 31.8775 20.0725 0
v 32.6025 19.6075 0
v 32.6025 25.0325 0
v 31.8775 24.5675 0
v 31.8775 25.0325 0
v 32.6025 24.5675 0
v 32.6025 29.9925 0
v 31.8775 29.5275 0
v 31.8775 29.9925 0
v 32.6025 29.5275 0
v 32.6025 34.9525 0
v 31.8775 34.4875 0
v 31.8775 34.9525 0
v 32.6025 34.4875 0
v 32.6025 39.9125 0
v 31.8775 39.4475 0
v 31.8775 39.9125 0
v 32.6025 39.4475 0
v 32.6025 44.8725 0
v 31.8775 44.4075 0
v 31.8775 44.8725 0
v 32.6025 44.4075 0
v 32.6025 5.1925 0
v 31.8775 4.7275 0
v 31.8775 5.1925 0
v 32.6025 4.7275 0
v 32.6025 49.8325 0
v 31.8775 49.3675 0
v 31.8775 49.8325 0
v 32.6025 49.3675 0
v 32.6025 10.1525 0
v 31.8775 9.6875 0
v 31.8775 10.1525 0
v 32.6025 9.6875 0
v 34.3575 0.2325 0
v 34.3575 -0.2325 0
v 35.0825 0.2325 0
v 35.0825 -0.2325 0
v 34.3575 15.1125 0
v 34.3575 14.6475 0
v 35.0825 15.1125 0
v 35.0825 14.6475 0
v 34.3575 20.0725 0
v 34.3575 19.6075 0
v 35.0825 20.0725 0
v 35.0825 19.6075 0
v 34.3575 25.0325 0
v 34.3575 24.5675 0
v 35.0825 25.0325 0
v 35.0825 24.5675 0
v 34.3575 29.9925 0
v 34.3575 29.5275 0
v 35.0825 29.9925 0
v 35.0825 29.5275 0
v 34.3575 34.9525 0
v 34.3575 34.4875 0
v 35.0825 34.9525 0
v 35.0825 34.4875 0
v 34.3575 39.9125 0
v 34.3575 39.4475 0
v 35.0825 39.9125 0
v 35.0825 39.4475 0
v 34.3575 44.8725 0
v 34.3575 44.4075 0
v 35.0825 44.8725 0
v 35.0825 44.4075 0
v 34.3575 5.1925 0
v 34.3575 4.7275 0
v 35.0825 5.1925 0
v 35.0825 4.7275 0
v 34.3575 49.8325 0
v 34.3575 49.3675 0
v 35.0825 49.8325 0
v 35.0825 49.3675 0
v 34.3575 10.1525 0
v 34.3575 9.6875 0
v 35.0825 10.1525 0
v 35.0825 9.6875 0
v 36.8375 0.2325 0
v 36.8375 -0.2325 0
v 37.5625 0.2325 0
v 37.5625 -0.2325 0
v 36.8375 15.1125 0
v 36.8375 14.6475 0
v 37.5625 15.1125 0
v 37.5625 14.6475 0
v 36.8375 20.0725 0
v 36.8375 19.6075 0
v 37.5625 20.0725 0
v 37.5625 19.6075 0
v 36.8375 25.0325 0
v 36.8375 24.5675 0
v 37.5625 25.0325 0
v 37.5625 24.5675 0
v 36.8375 29.9925 0
v 36.8375 29.5275 0
v 37.5625 29.9925 0
v 37.5625 29.5275 0
v 36.8375 34.9525 0
v 36.8375 34.4875 0
v 37.5625 34.9525 0
v 37.5625 34.4875 0
v 36.8375 39.9125 0
v 36.8375 39.4475 0
v 37.5625 39.9125 0
v 37.5625 39.4475 0
v 36.8375 44.8725 0
v 36.8375 44.4075 0
v 37.5625 44.8725 0
v 37.5625 44.4075 0
v 36.8375 5.1925 0
v 36.8375 4.7275 0
v 37.5625 5.1925 0
v 37.5625 4.7275 0
v 36.8375 49.8325 0
v 36.8375 49.3675 0
v 37.5625 49.8325 0
v 37.5625 49.3675 0
v 36.8375 10.1525 0
v 36.8375 9.6875 0
v 37.5625 10.1525 0
v 37.5625 9.6875 0
v 39.3175 0.2325 0
v 39.3175 -0.2325 0
v 40.0425 0.2325 0
v 40.0425 -0.2325 0
v 39.3175 15.1125 0
v 39.3175 14.6475 0
v 40.0425 15.1125 0
v 40.0425 14.6475 0
v 39.3175 20.0725 0
v 39.3175 19.6075 0
v 40.0425 20.0725 0
v 40.0425 19.6075 0
v 39.3175 25.0325 0
v 39.3175 24.5675 0
v 40.0425 25.0325 0
v 40.0425 24.5675 0
v 39.3175 29.9925 0
v 39.3175 29.5275 0
v 40.0425 29.9925 0
v 40.0425 29.5275 0
v 39.3175 34.9525 0
v 39.3175 34.4875 0
v 40.0425 34.9525 0
v 40.0425 34.4875 0
v 39.3175 39.9125 0
v 39.3175 39.4475 0
v 40.0425 39.9125 0
v 40.0425 39.4475 0
v 39.3175 44.8725 0
v 39.3175 44.4075 0
v 40.0425 44.8725 0
v 40.0425 44.4075 0
v 39.3175 5.1925 0
v 39.3175 4.7275 0
v 40.0425 5.1925 0
v 40.0425 4.7275 0
v 39.3175 49.8325 0
v 39.3175 49.3675 0
v 40.0425 49.8325 0
v 40.0425 49.3675 0
v 39.3175 10.1525 0
v 39.3175 9.6875 0
v 40.0425 10.1525 0
v 40.0425 9.6875 0
v 41.7975 0.2325 0
v 41.7975 -0.2325 0
v 42.5225 0.2325 0
v 42.5225 -0.2325 0
v 41.7975 15.1125 0
v 41.7975 14.6475 0
v 42.5225 15.1125 0
v 42.5225 14.6475 0
v 41.7975 20.0725 0
v 41.7975 19.6075 0
v 42.5225 20.0725 0
v 42.5225 19.6075 0
v 41.7975 25.0325 0
v 41.7975 24.5675 0
v 42.5225 25.0325 0
v 42.5225 24.5675 0
v 41.7975 29.9925 0
v 41.7975 29.5275 0
v 42.5225 29.9925 0
v 42.5225 29.5275 0
v 41.7975 34.9525 0
v 41.7975 34.4875 0
v 42.5225 34.9525 0
v 42.5225 34.4875 0
v 41.7975 39.9125 0
v 41.7975 39.4475 0
v 42.5225 39.9125 0
v 42.5225 39.4475 0
v 41.7975 44.8725 0
v 41.7975 44.4075 0
v 42.5225 44.8725 0
v 42.5225 44.4075 0
v 41.7975 5.1925 0
v 41.7975 4.7275 0
v 42.5225 5.1925 0
v 42.5225 4.7275 0
v 41.7975 49.8325 0
v 41.7975 49.3675 0
v 42.5225 49.8325 0
v 42.5225 49.3675 0
v 41.7975 10.1525 0
v 41.7975 9.6875 0
v 42.5225 10.1525 0
v 42.5225 9.6875 0
v 44.2775 0.2325 0
v 44.2775 -0.2325 0
v 45.0025 0.2325 0
v 45.0025 -0.2325 0
v 44.2775 15.1125 0
v 44.2775 14.6475 0
v 45.0025 15.1125 0
v 45.0025 14.6475 0
v 44.2775 20.0725 0
v 44.2775 19.6075 0
v 45.0025 20.0725 0
v 45.0025 19.6075 0
v 44.2775 25.0325 0
v 44.2775 24.5675 0
v 45.0025 25.0325 0
v 45.0025 24.5675 0
v 44.2775 29.9925 0
v 44.2775 29.5275 0
v 45.0025 29.9925 0
v 45.0025 29.5275 0
v 44.2775 34.9525 0
v 44.2775 34.4875 0
v 45.0025 34.9525 0
v 45.0025 34.4875 0
v 44.2775 39.9125 0
v 44.2775 39.4475 0
v 45.0025 39.9125 0
v 45.0025 39.4475 0
v 44.2775 44.8725 0
v 44.2775 44.4075 0
v 45.0025 44.8725 0
v 45.0025 44.4075 0
v 44.2775 5.1925 0
v 44.2775 4.7275 0
v 45.0025 5.1925 0
v 45.0025 4.7275 0
v 44.2775 49.8325 0
v 44.2775 49.3675 0
v 45.0025 49.8325 0
v 45.0025 49.3675 0
v 44.2775 10.1525 0
v 44.2775 9.6875 0
v 45.0025 10.1525 0
v 45.0025 9.6875 0
v 46.7575 0.2325 0
v 46.7575 -0.2325 0
v 47.4825 0.2325 0
v 47.4825 -0.2325 0
v 46.7575 15.1125 0
v 46.7575 14.6475 0
v 47.4825 15.1125 0
v 47.4825 14.6475 0
v 46.7575 20.0725 0
v 46.7575 19.6075 0
v 47.4825 20.0725 0
v 47.4825 19.6075 0
v 46.7575 25.0325 0
v 46.7575 24.5675 0
v 47.4825 25.0325 0
v 47.4825 24.5675 0
v 46.7575 29.9925 0
v 46.7575 29.5275 0
v 47.4825 29.9925 0
v 47.4825 29.5275 0
v 46.7575 34.9525 0
v 46.7575 34.4875 0
v 47.4825 34.9525 0
v 47.4825 34.4875 0
v 46.7575 39.9125 0
v 46.7575 39.4475 0
v 47.4825 39.9125 0
v 47.4825 39.4475 0
v 46.7575 44.8725 0
v 46.7575 44.4075 0
v 47.4825 44.8725 0
v 47.4825 44.4075 0
v 46.7575 5.1925 0
v 46.7575 4.7275 0
v 47.4825 5.1925 0
v 47.4825 4.7275 0
v 46.7575 49.8325 0
v 46.7575 49.3675 0
v 47.4825 49.8325 0
v 47.4825 49.3675 0
v 46.7575 10.1525 0
v 46.7575 9.6875 0
v 47.4825 10.1525 0
v 47.4825 9.6875 0
v 4.5975 0.2325 0
v 4.5975 -0.2325 0
v 5.3225 0.2325 0
v 5.3225 -0.2325 0
v 49.2375 0.2325 0
v 49.2375 -0.2325 0
v 49.9625 0.2325 0
v 49.9625 -0.2325 0
v 4.5975 15.1125 0
v 4.5975 14.6475 0
v 5.3225 15.1125 0
v 5.3225 14.6475 0
v 49.2375 15.1125 0
v 49.2375 14.6475 0
v 49.9625 15.1125 0
v 49.9625 14.6475 0
v 4.5975 20.0725 0
v 4.5975 19.6075 0
v 5.3225 20.0725 0
v 5.3225 19.6075 0
v 49.2375 20.0725 0
v 49.2375 19.6075 0
v 49.9625 20.0725 0
v 49.9625 19.6075 0
v 4.5975 25.0325 0
v 4.5975 24.5675 0
v 5.3225 25.0325 0
v 5.3225 24.5675 0
v 49.2375 25.0325 0
v 49.2375 24.5675 0
v 49.9625 25.0325 0
v 49.9625 24.5675 0
v 4.5975 29.9925 0
v 4.5975 29.5275 0
v 5.3225 29.9925 0
v 5.3225 29.5275 0
v 49.2375 29.9925 0
v 49.2375 29.5275 0
v 49.9625 29.9925 0
v 49.9625 29.5275 0
v 4.5975 34.9525 0
v 4.5975 34.4875 0
v 5.3225 34.9525 0
v 5.3225 34.4875 0
v 49.2375 34.9525 0
v 49.2375 34.4875 0
v 49.9625 34.9525 0
v 49.9625 34.4875 0
v 4.5975 39.9125 0
v 4.5975 39.4475 0
v 5.3225 39.9125 0
v 5.3225 39.4475 0
v 49.2375 39.9125 0
v 49.2375 39.4475 0
v 49.9625 39.9125 0
v 49.9625 39.4475 0
v 4.5975 44.8725 0
v 4.5975 44.4075 0
v 5.3225 44.8725 0
v 5.3225 44.4075 0
v 49.2375 44.8725 0
v 49.2375 44.4075 0
v 49.9625 44.8725 0
v 49.9625 44.4075 0
v 4.5975 5.1925 0
v 4.5975 4.7275 0
v 5.3225 5.1925 0
v 5.3225 4.7275 0
v 4.5975 49.8325 0
v 4.5975 49.3675 0
v 5.3225 49.8325 0
v 5.3225 49.3675 0
v 49.2375 5.1925 0
v 49.2375 4.7275 0
v 49.9625 5.1925 0
v 49.9625 4.7275 0
v 49.2375 49.8325 0
v 49.2375 49.3675 0
v 49.9625 49.8325 0
v 49.9625 49.3675 0
v 4.5975 10.1525 0
v 4.5975 9.6875 0
v 5.3225 10.1525 0
v 5.3225 9.6875 0
v 49.2375 10.1525 0
v 49.2375 9.6875 0
v 49.9625 10.1525 0
v 49.9625 9.6875 0
v 7.0775 0.2325 0
v 7.0775 -0.2325 0
v 7.8025 0.2325 0
v 7.8025 -0.2325 0
v 7.0775 15.1125 0
v 7.0775 14.6475 0
v 7.8025 15.1125 0
v 7.8025 14.6475 0
v 7.0775 20.0725 0
v 7.0775 19.6075 0
v 7.8025 20.0725 0
v 7.8025 19.6075 0
v 7.0775 25.0325 0
v 7.0775 24.5675 0
v 7.8025 25.0325 0
v 7.8025 24.5675 0
v 7.0775 29.9925 0
v 7.0775 29.5275 0
v 7.8025 29.9925 0
v 7.8025 29.5275 0
v 7.0775 34.9525 0
v 7.0775 34.4875 0
v 7.8025 34.9525 0
v 7.8025 34.4875 0
v 7.0775 39.9125 0
v 7.0775 39.4475 0
v 7.8025 39.9125 0
v 7.8025 39.4475 0
v 7.0775 44.8725 0
v 7.0775 44.4075 0
v 7.8025 44.8725 0
v 7.8025 44.4075 0
v 7.0775 5.1925 0
v 7.0775 4.7275 0
v 7.8025 5.1925 0
v 7.8025 4.7275 0
v 7.0775 49.8325 0
v 7.0775 49.3675 0
v 7.8025 49.8325 0
v 7.8025 49.3675 0
v 7.0775 10.1525 0
v 7.0775 9.6875 0
v 7.8025 10.1525 0
v 7.8025 9.6875 0
v 9.5575 0.2325 0
v 9.5575 -0.2325 0
v 10.2825 0.2325 0
v 10.2825 -0.2325 0
v 9.5575 15.1125 0
v 9.5575 14.6475 0
v 10.2825 15.1125 0
v 10.2825 14.6475 0
v 9.5575 20.0725 0
v 9.5575 19.6075 0
v 10.2825 20.0725 0
v 10.2825 19.6075 0
v 9.5575 25.0325 0
v 9.5575 24.5675 0
v 10.2825 25.0325 0
v 10.2825 24.5675 0
v 9.5575 29.9925 0
v 9.5575 29.5275 0
v 10.2825 29.9925 0
v 10.2825 29.5275 0
v 9.5575 34.9525 0
v 9.5575 34.4875 0
v 10.2825 34.9525 0
v 10.2825 34.4875 0
v 9.5575 39.9125 0
v 9.5575 39.4475 0
v 10.2825 39.9125 0
v 10.2825 39.4475 0
v 9.5575 44.8725 0
v 9.5575 44.4075 0
v 10.2825 44.8725 0
v 10.2825 44.4075 0
v 9.5575 5.1925 0
v 9.5575 4.7275 0
v 10.2825 5.1925 0
v 10.2825 4.7275 0
v 9.5575 49.8325 0
v 9.5575 49.3675 0
v 10.2825 49.8325 0
v 10.2825 49.3675 0
v 9.5575 10.1525 0
v 9.5575 9.6875 0
v 10.2825 10.1525 0
v 10.2825 9.6875 0
